{
  "categoryDescriptions": {
    "fun": "Fun commands: they have no real purpose other than to entertain. Enjoy :)",
    "moderation": "These commands are specifically for disciplining members or providing corrective action.",
    "macro": "Macro commands are useful for maintaining and displaying helpful messages.",
    "utility": "Generally useful commands. This is a misc section.",
    "infractions": "Used for distributing and maintaining strike-based infractions.",
    "permissions": "Administrative functionality for setting command permissions.",
    "suggestions": "You can use commands in this section to give suggestions to the server.",
    "embed": "Commands used to build an embed and then send it. You build an embed by using the set/add commands (listed below) - when ready, use sendembed",
    "banqueue": "Commands used for preventing raids and setting up bans. Each moderator has a raid queue in which they can 'pre-load' some bans, with a defined reason.",
    "security": "Commands for modifying security features and thresholds of the bot.",
    "invites": "Commands for dictating how the bot will handle invites",
    "rank": "Commands for granting and removing ranks.",
    "resources": "Commands related to channel resources",
    "polling": "Commands related to polling questions and answers",
    "api": "Commands related to evaluting Javascript code inline, or interfacing with the bot api.",
    "giveaways": "Commands related to giveaways"
  },
  "commands": [
    {
      "name": "viewroleassignments",
      "category": "permissions",
      "description": "View the assigned permission levels of any role which has an assigned permission level",
      "structure": "",
      "example": ""
    },
    {
      "name": "setrolelevel",
      "category": "permissions",
      "description": "Set the PermissionLevel of a particular role.",
      "structure": "{role} {level}",
      "example": "moderatorRole Moderator"
    },
    {
      "name": "ban",
      "category": "moderation",
      "description": "Bans a member",
      "structure": "{user} {delete days (Optional)} {reason}",
      "example": "@Fox#0001 7 For wearing crocs"
    },
    {
	  "name": "cowsay",
	  "category": "fun",
	  "description": "Displays a cowsay with a given message",
	  "structure": "{message}",
	  "example": "moo, i am a cow!"
	},
    {
      "name": "cat",
      "category": "fun",
      "description": "Displays a picture of a cat.",
      "structure": "",
      "example": ""
    },
    {
      "name": "fox",
      "category": "fun",
      "description": "Displays a picture of a fox.",
      "structure": "",
      "example": ""
    },
    {
      "name": "flip",
      "category": "fun",
      "description": "Flips a coin. Optionally, print one of the choices given.",
      "structure": "[{choice} | {choice} ...]",
      "example": "Get work done | Browse #meme-bin | Take a power nap"
    },
    {
      "name": "dog",
      "category": "fun",
      "description": "Display a picture of a dog",
      "structure": "",
      "example": ""
    },
    {
      "name": "bird",
      "category": "fun",
      "description": "Display a picture of a bird",
      "structure": "",
      "example": ""
    },
    {
      "name": "addmacro",
      "category": "macro",
      "description": "Add a macro which will respond with the given message when invoked by the given name.",
      "structure": "{macroName} {categoryName} [macroMessage]",
      "example": "greet fun Hello, World!"
    },
    {
      "name": "editmacro",
      "category": "macro",
      "description": "Change a macro's response message",
      "structure": "{macroName} [macroMessage]",
      "example": "test New test message."
    },
    {
      "name": "renamemacro",
      "category": "macro",
      "description": "Change a macro's name, keeping the original response",
      "structure": "{oldName} {newName}",
      "example": "greet helloworld"
    },
    {
      "name": "setmacrocategories",
      "category": "macro",
      "description": "Move one or many macros to a category.",
      "structure": "macroName1 macroName2 macroName3 ... | categoryName",
      "example": "ask sask wrapcode | help"
    },
    {
      "name": "removemacro",
      "category": "macro",
      "description": "Removes a macro with the given name",
      "structure": "{macroname}",
      "example": "greet"
    },
    {
      "name": "removemacros",
      "category": "macro",
      "description": "Removes a whole category of macros",
      "structure": "{categoryName}",
      "example": "fun"
    },
    {
      "name": "listmacros",
      "category": "macro",
      "description": "List all of the currently available macros.",
      "structure": "",
      "example": ""
    },
    {
      "name": "nuke",
      "category": "moderation",
      "description": "Delete the last 1 - 99 messages in the chat.",
      "structure": "{amount}",
      "example": "10"
    },
    {
      "name": "move",
      "category": "moderation",
      "description": "Move every message sent by any of the users with the IDs listed found within the given search space to the specified channel.",
      "structure": "{idList (a list of user ids, separated by commas)} {searchSpace} {targetChannelID}",
      "example": "123412488123,23450293480234,234234234 10 323499949234"
    },
    {
      "name": "ignore",
      "category": "moderation",
      "description": "Drop all commands from the given id (user or channel)",
      "structure": "{user/channelID}",
      "example": "12340985893"
    },
    {
      "name": "mute",
      "category": "moderation",
      "description": "Mute a member for a specified number of minutes.",
      "structure": "{userID} {timeString} [Reason]",
      "example": "12340234239 1 day 10m Being a silly billy."
    },
    {
      "name": "lockdown",
      "category": "management",
      "description": "Force the bot to ignore anyone who isn't the owner.",
      "structure": "",
      "example": ""
    },
    {
      "name": "prefix",
      "category": "management",
      "description": "Set the bot prefix to the specified string (Cannot be a space)",
      "structure": "{prefix}",
      "example": "!"
    },
    {
      "name": "setFilter",
      "category": "management",
      "description": "Set the permission level required to run a command which contains a mention (used for mention sanitation)",
      "structure": "{permissionLevel}",
      "example": "moderator"
    },
    {
      "name": "setPermission",
      "category": "permissions",
      "description": "Set the permission level of the given command to the given permission level.",
      "structure": "{commandName} {permissionLevel}",
      "example": "nuke moderator"
    },
    {
      "name": "getPermission",
      "category": "permissions",
      "description": "Get the current required permission level for a particular command.",
      "structure": "{commandName}",
      "example": "nuke"
    },
    {
      "name": "listCommandPerms",
      "category": "permissions",
      "description": "Display all current commands and the corresponding required permission level to use each of them.",
      "structure": "",
      "example": ""
    },
    {
      "name": "roleids",
      "category": "permissions",
      "description": "Display each role in the server with its corresponding ID",
      "structure": "",
      "example": ""
    },
    {
      "name": "warn",
      "category": "infractions",
      "description": "Warn a member, giving them a 0 strike infraction with the given reason.",
      "structure": "{userid} {reason}",
      "example": "123401991824 Re-read the rules... no advertising."
    },
    {
      "name": "strike",
      "category": "infractions",
      "description": "Give a member a weighted infraction, with specified weight and reason. This may result in them being banned. Weights should be below or equal to StrikeCeil",
      "structure": "{userid} {weight} {reason}",
      "example": "1324234523048 1 Refusing to stop arguing. Please pay more attention to what moderators are saying to you"
    },
    {
      "name": "history",
      "category": "infractions",
      "description": "Display a user's infraction history.",
      "structure": "{userid}",
      "example": "1341350050053"
    },
    {
      "name": "removeStrike",
      "category": "infractions",
      "description": "Delete a particular strike by ID (these are listed in the history command).",
      "structure": "{strikeID}",
      "example": "123"
    },
    {
      "name": "cleanse",
      "category": "infractions",
      "description": "Completely wipe a user of all infractions. (Permanently deletes them)",
      "structure": "{userID}",
      "example": "12093810293810293"
    },
    {
      "name": "badpfp",
      "category": "infractions",
      "description": "Notifies the user that they should change their profile pic. If they don't do that within 30 minutes, they will be automatically banned.",
      "structure": "{userID}",
      "example": "12093810293810293"
    },
    {
      "name": "selfhistory",
      "category": "infractions",
      "description": "See your own infraction history.",
      "structure": "",
      "example": ""
    },
    {
      "name": "note",
      "category": "infractions",
      "description": "Add a note to a user's history",
      "structure": "{userID} {noteMessage}",
      "example": "345541952500006911 This is a note"
    },
    {
      "name": "removeNote",
      "category": "infractions",
      "description": "Removes a note by ID (listed in history)",
      "structure": "{noteId}",
      "example": "17"
    },
    {
      "name": "cleanseNotes",
      "category": "infractions",
      "description": "Wipes all notes from a user (permanently deleted).",
      "structure": "",
      "example": ""
    },
    {
      "name": "editNote",
      "category": "infractions",
      "description": "Edits a note by ID (listed in history)",
      "structure": "{noteId} {edited note}",
      "example": "17 This is the edited note"
    },
    {
      "name": "ping",
      "category": "utility",
      "description": "Pong!",
      "structure": "",
      "example": ""
    },
    {
      "name": "version",
      "category": "utility",
      "description": "Display the bot version -- this is updated via maven filtering.",
      "structure": "",
      "example": ""
    },
    {
      "name": "author",
      "category": "utility",
      "description": "Display project authors -- this is updated via maven filtering.",
      "structure": "",
      "example": ""
    },
    {
      "name": "help",
      "category": "utility",
      "description": "Display a help menu.",
      "structure": "{ nothing | CommandName | category }",
      "example": "nuke"
    },
    {
      "name": "serverinfo",
      "category": "utility",
      "description": "Display a message giving basic server information",
      "structure": "",
      "example": ""
    },
    {
      "name": "exit",
      "category": "utility",
      "description": "Exit, saving configurations.",
      "structure": "",
      "example": ""
    },
    {
      "name": "kill",
      "category": "utility",
      "description": "Exit, without saving configurations.",
      "structure": "",
      "example": ""
    },
    {
      "name": "uptime",
      "category": "utility",
      "description": "Displays how long you have kept me, HOTBOT, AWAKE!",
      "structure": "",
      "example": ""
    },
    {
      "name": "suggest",
      "category": "suggestions",
      "description": "Send a suggestion to the pre-lim pool. Suggestions are reviewed by a mod before they are reviewed by the community.",
      "structure": "{suggestion}",
      "example": "I want a rust channel because I want a rust channel. **Notice me senpai**"
    },
    {
      "name": "poolinfo",
      "category": "suggestions",
      "description": "Display how many suggestions are in the staging area.",
      "structure": "",
      "example": ""
    },
    {
      "name": "poolTop",
      "category": "suggestions",
      "description": "See the suggestion in the pool next in line for review.",
      "structure": "",
      "example": ""
    },
    {
      "name": "poolaccept",
      "category": "suggestions",
      "description": "Move the suggestion at the top of the pool to the community review stage.",
      "structure": "",
      "example": ""
    },
    {
      "name": "pooldeny",
      "category": "suggestions",
      "description": "Delete the suggestion at the top of the pool; this is for removing bad or vulgar suggestions.",
      "structure": "",
      "example": ""
    },
    {
      "name": "respond",
      "category": "suggestions",
      "description": "Respond to a suggestion in the community review stage. Suggestions here can be accepted or denied, must supply a reason.",
      "structure": "{suggestion message ID} {Accepted | Denied | Review} {Reason}",
      "example": "1231928401824 Denied This is a bad suggestion, it won't really fit here, sadly."
    },
    {
      "name": "badname",
      "category": "moderation",
      "description": "Auto-nick a user with a bad name.",
      "structure": "{UserID} {Reason for nick}",
      "example": "1231928401824 Your name is not taggable."
    },
    {
      "name": "clearEmbed",
      "category": "embed",
      "description": "Reset the embed in memory",
      "structure": "",
      "example": ""
    },
    {
      "name": "sendEmbed",
      "category": "embed",
      "description": "Send the embed in the channel. This will not call clearEmbed.",
      "structure": "",
      "example": ""
    },
    {
      "name": "updateEmbed",
      "category": "embed",
      "description": "Update the original message of the embed copied with copyembed.",
      "structure": "",
      "example": ""
    },
    {
      "name": "copyembed",
      "category": "embed",
      "description": "Copies the embed from the message with the given id into the embed builder. The channelId from which to get the embed is optional and will default to the one you invoked the command in.",
      "structure": "{messageId} [channelId]",
      "example": "404551348739112961"
    },
    {
      "name": "editfield",
      "category": "embed",
      "description": "Edits a field in the current embed being worked on. The passed index should be from 0 to fields.size - 1. Properties: name, text (or value), inline.",
      "structure": "{fieldIndex} {property} {newValue}",
      "example": "0 name New title of field"
    },
    {
      "name": "setTitle",
      "category": "embed",
      "description": "Set the title of the embed in memory",
      "structure": "{title}",
      "example": "this is the title... :)"
    },
    {
      "name": "setDescription",
      "category": "embed",
      "description": "Set the description of the embed",
      "structure": "{description}",
      "example": "this is the description... :)"
    },
    {
      "name": "addTimestamp",
      "category": "embed",
      "description": "Add a timestamp to the footer of the embed in memory",
      "structure": "",
      "example": ""
    },
    {
      "name": "setColour",
      "category": "embed",
      "description": "Set the colour of the embed using RGB -- values must be between 0 and 1",
      "structure": "{red} {green} {blue}",
      "example": "0.333 0.666 0"
    },
    {
      "name": "setSelfAuthor",
      "category": "embed",
      "description": "Set yourself to be the author of the embed",
      "structure": "",
      "example": ""
    },
    {
      "name": "setAuthor",
      "category": "embed",
      "description": "Set a user with the given ID to be the author",
      "structure": "{targetUserID}",
      "example": "1231238858851"
    },
    {
      "name": "setImage",
      "category": "embed",
      "description": "Set the image of the embed",
      "structure": "{image url}",
      "example": "http://www.imgur.com/exampleimage.png"
    },
    {
      "name": "setFooter",
      "category": "embed",
      "description": "Set the footer of the embed, including the URL and text",
      "structure": "{image url} {text}",
      "example": "http://www.imgur.com/exampleimage.png this is the footer... :)"
    },
    {
      "name": "addBlankField",
      "category": "embed",
      "description": "Add a blank field to the embed",
      "structure": "",
      "example": ""
    },
    {
      "name": "addField",
      "category": "embed",
      "description": "Add the field currently held in memory to the embed currently held in memory (Note: Use setFName and setFText to set the text)",
      "structure": "",
      "example": ""
    },
    {
      "name": "addIField",
      "category": "embed",
      "description": "Inline and add the field currently held in memory to the embed currently held in memory (Note: Use setFName and setFText to set the text)",
      "structure": "",
      "example": ""
    },
    {
      "name": "clearFieldHolder",
      "category": "embed",
      "description": "Clear the fields out in the field in memory, resetting the field to a new one",
      "structure": "",
      "example": ""
    },
    {
      "name": "setFText",
      "category": "embed",
      "description": "Set the field text in memory",
      "structure": "{text}",
      "example": "this text will be appended to the bottom of the field... :) "
    },
    {
      "name": "setFName",
      "category": "embed",
      "description": "Set the field name or title",
      "structure": "{name}",
      "example": "This text will be set as the title of the field... :)"
    },
    {
      "name": "setThumbnail",
      "category": "embed",
      "description": "Set the thumbnail of the embed",
      "structure": "{imageURL}",
      "example": "www.imgur.com/exampleImage.png"
    },
    {
      "name": "echo",
      "category": "utility",
      "description": "Echo a message to a channel",
      "structure": "{channelID} {message}",
      "example": "139413981501 Hi there, I am hotbot"
    },
    {
      "name": "joindate",
      "category": "utility",
      "description": "See when a member joined the guild.",
      "structure": "{userID}",
      "example": "14014394132901"
    },
    {
      "name": "clearFields",
      "category": "embed",
      "description": "Clear the fields in the embed.",
      "structure": "",
      "example": ""
    },
    {
      "name": "unwhitelistinvite",
      "category": "invite",
      "description": "Remove an invitation from the whitelist.",
      "structure": "{invite}",
      "example": "discord.gg/programming"
    },
    {
      "name": "resetsecuritylevel",
      "category": "security",
      "description": "Set the security level back to normal.",
      "structure": "",
      "example": ""
    },
    {
      "name": "makeroleungrantable",
      "category": "rank",
      "description": "Disallow granting of this role",
      "structure": "{rolename}",
      "example": "admin"
    },
    {
      "name": "saveconfigurations",
      "category": "moderation",
      "description": "Save the configuration of the bot. You may want to do this if you change the prefix.",
      "structure": "",
      "example": ""
    },
    {
      "name": "whitelistinvite",
      "category": "invite",
      "description": "Allow an invite to be posted.",
      "structure": "{invite}",
      "example": "discord.gg/programming"
    },
    {
      "name": "makerolegrantable",
      "category": "rank",
      "description": "Allow a role to be granted.",
      "structure": "{role}",
      "example": "admin"
    },
    {
      "name": "viewnewplayers",
      "category": "security",
      "description": "View what the bot deems as new players",
      "structure": "",
      "example": ""
    },
    {
      "name": "restart",
      "category": "moderation",
      "description": "Restart the bot.",
      "structure": "",
      "example": ""
    },
    {
      "name": "setsecuritylevel",
      "category": "security",
      "description": "Set the bot's security level",
      "structure": "{security level}",
      "example": "max"
    },
    {
      "name": "revoke",
      "category": "rank",
      "description": "Revoke a rank from a user",
      "structure": "{role name} {userID}",
      "example": "active 123135401939983"
    },
    {
      "name": "grant",
      "category": "rank",
      "description": "Grant a rank to a user.",
      "structure": "{role name} {userID}",
      "example": "active 123135401939983"
    },
    {
      "name": "listgrantableroles",
      "category": "rank",
      "description": "List grantable roles",
      "structure": "",
      "example": ""
    },
    {
      "name": "securitylevel",
      "category": "security",
      "description": "See what the current server security level is.",
      "structure": "",
      "example": ""
    },
    {
      "name": "viewCreationDate",
      "category": "utility",
      "description": "See when a user was created",
      "structure": "{userID}",
      "example": "3432424004320"
    },
    {
      "name": "banRaider",
      "category": "security",
      "description": "Ban a raider by an ID, do this rather than ban people as it'll exit them from the raidView",
      "structure": "{raiderID} {amount of days to delete messages}",
      "example": "9432432934290 1"
    },
    {
      "name": "freeRaider",
      "category": "security",
      "description": "Free a raider by an ID, unmuting them. Do this rather than ban people as it'll exit them from the raidView as well.",
      "structure": "{raiderID}",
      "example": "9432432934290"
    },
    {
      "name": "viewRaiders",
      "category": "security",
      "description": "See what raiders are in the raidView",
      "structure": "",
      "example": ""
    },
    {
      "name": "freeAllRaiders",
      "category": "security",
      "description": "For freeing all raiders from the raid queue, unmuting them as well.",
      "structure": "",
      "example": ""
    },
    {
      "name": "banAutodetectedRaid",
      "category": "security",
      "description": "Ban all of the raiders in the raidview",
      "structure": "{amount of days to delete messages}",
      "example": "1"
    },
    {
      "name": "getBanReason",
      "category": "moderation",
      "description": "Get the ban reason of someone logged who does not have a ban reason in the audit log.",
      "structure": "{userID}",
      "example": "132493219093592"
    },
    {
      "name": "setBanReason",
      "category": "moderation",
      "description": "Set the ban reason of someone logged who does not have a ban reason in the audit log.",
      "structure": "{userID} {reason}",
      "example": "132493219093592 being a naughty boy!"
    },
    {
      "name": "google",
      "category": "utility",
      "description": "google a thing",
      "structure": "{search term}",
      "example": "Stackoverflow"
    },
    {
      "name": "addresource",
      "category": "resources",
      "description": "Add a channel resource to the current channel.",
      "structure": "{section}|{info text}",
      "example": "Books|Some Book - https://some.book.url/"
    },
    {
      "name": "listresources",
      "category": "resources",
      "description": "List current channel resources",
      "structure": "",
      "example": ""
    },
    {
      "name": "listresourcesids",
      "category": "resources",
      "description": "List current channel resources (w/ ids shown, for removeresource)",
      "structure": "",
      "example": ""
    },
    {
      "name": "removeresource",
      "category": "resources",
      "description": "Remove one or more of current channel resources",
      "structure": "{resourceID}|{resourceID}|...",
      "example": "123|456|789"
    },
    {
      "name": "resetresources",
      "category": "resources",
      "description": "Remove all of current channel resources.",
      "structure": "",
      "example": ""
    },
    {
      "name": "poll",
      "category": "polling",
      "description": "Create a poll with one question and 2 to 9 answers.",
      "structure": "Question|Answer1|Answer2| ... | Answer9",
      "example": "What is my name|Jimothy|Bob Stevens"
    },
    {
      "name": "finishpoll",
      "category": "polling",
      "description": "Conclude a poll, based on the embed message ID of the poll.",
      "structure": "pollMessageID",
      "example": "408017609359884298"
    },
    {
      "name": "botinfo",
      "category": "utility",
      "description": "Display the bot information.",
      "structure": "",
      "example": ""
    },
    {
      "name": "gag",
      "category": "moderation",
      "description": "Temporarily mute a user for a few minutes so that you can deal with something.",
      "structure": "{userId}",
      "example": "134932042994309234"
    },
    {
      "name": "strikerequest",
      "category": "infractions",
      "description": "Quite like the strike command, except another moderator reviews it before it is accepted.",
      "structure": "{userId} {amount of Strikes} {reason}",
      "example": "@Fox 2 Being a bad user."
    },
    {
      "name": "acceptrequest",
      "category": "infractions",
      "description": "Accept a request for striking a user by another moderator. This will infract the target user.",
      "structure": "{targetUserID}",
      "example": "@Fox"
    },
    {
      "name": "deleterequest",
      "category": "infractions",
      "description": "Delete a request made by yourself.",
      "structure": "{targetUserID}",
      "example": "@Fox"
    },
    {
      "name": "viewrequest",
      "category": "infractions",
      "description": "View the current strike request, if any, on the given user.",
      "structure": "{targetUserID}",
      "example": "@Fox"
    },
    {
      "name": "declinerequest",
      "category": "infractions",
      "description": "Reject a request for a strike on a user. This will notify the invoker and delete the request.",
      "structure": "{targetUserID}",
      "example": "@Fox"
    },
    {
      "name": "listrequests",
      "category": "infractions",
      "description": "List all current strike requests",
      "structure": "",
      "example": ""
    },
    {
      "name": "remindme",
      "category": "utility",
      "description": "A command that'll remind you about something after the specified time.",
      "structure": "{timeString} {reminder}",
      "example": "1 day 1h 2 minutes 3m 2s Take out the trash"
    },
    {
      "name": "setAllPermissions",
      "category": "permissions",
      "description": "Set the permission of all commands to a specific role. Only available to the bot owner.",
      "structure": "{role}",
      "example": "moderator"
    },
    {
      "name": "setPermissions",
      "category": "permissions",
      "description": "Set the permission of all commands in a category to a specific role (i.e. allow that role and roles above to use these commands). ",
      "structure": "{commandCategory} {role}",
      "example": "moderation moderator"
    },
    {
      "name": "viewPermissions",
      "category": "permissions",
      "description": "View all of the commands by category, listed with their associated permission.",
      "structure": "{commandCategory} {role}",
      "example": "moderation moderator"
    },
    {
      "name": "listavailable",
      "category": "permissions",
      "description": "View commands available to you, based on your permission level.",
      "structure": "",
      "example": ""
    },
    {
      "name": "eval",
      "category": "api",
      "description": "Eval code without a response",
      "structure": "{code}",
      "example": "event.respond('hi');"
    },
    {
      "name": "mutevoicechannel",
      "category": "moderation",
      "description": "Mute all non-moderators in a voice channel.",
      "structure": "{targetChannelId}",
      "example": "134932042994309234"
    },
    {
      "name": "unmutevoicechannel",
      "category": "moderation",
      "description": "Unmute all users in a voice channel.",
      "structure": "{targetChannelId}",
      "example": "134932042994309234"
    },
    {
      "name": "giveawaystart",
      "category": "giveaway",
      "description": "Starts a giveaway in the channel it is invoked in.",
      "structure": "{timeString} {prize}",
      "example": "1d an ice cold can of coke"
    },
    {
      "name": "giveawayend",
      "category": "giveaway",
      "description": "Force end a giveaway",
      "structure": "{messageID}",
      "example": "429853770063806466"
    },
    {
      "name": "giveawayreroll",
      "category": "giveaway",
      "description": "Reroll an ended giveaway to get a new winner",
      "structure": "{messageID}",
      "example": "429853770063806466"
    },
    {
      "name": "xkcd",
      "category": "fun",
      "description": "Returns the XKCD comic number specified, or a random comic if you don't supply a number.",
      "structure": "{comicNumber}",
      "example": "371"
    },
    {
      "name": "xkcd-search",
      "category": "fun",
      "description": "Returns a XKCD comic that most closely matches your query.",
      "structure": "{searchQuery}",
      "example": "Exploits of a mom"
    },
    {
      "name": "xkcd-latest",
      "category": "fun",
      "description": "Grabs the latest XKCD comic.",
      "structure": "",
      "example": ""
    },
    {
      "name": "uploadtext",
      "category": "utility",
      "description": "Uploads the given block of text/code to hastebin and removes the invocation",
      "structure": "{text}",
      "example": "print('Hello, World!')"
    }
  ]
}
